UART/simulation/qsim/UART.msim.vcd
$comment
	File created using the following command:
		vcd file UART.msim.vcd -direction
$end
$date
	Sun May 25 14:42:00 2025
$end
$version
	ModelSim Version 2020.1
$end
$timescale
	1ps
$end

$scope module UART_vlg_vec_tst $end
$var reg 1 ! clk $end
$var reg 1 " input_bit $end
$var wire 1 # Reciever_Current_State [31] $end
$var wire 1 $ Reciever_Current_State [30] $end
$var wire 1 % Reciever_Current_State [29] $end
$var wire 1 & Reciever_Current_State [28] $end
$var wire 1 ' Reciever_Current_State [27] $end
$var wire 1 ( Reciever_Current_State [26] $end
$var wire 1 ) Reciever_Current_State [25] $end
$var wire 1 * Reciever_Current_State [24] $end
$var wire 1 + Reciever_Current_State [23] $end
$var wire 1 , Reciever_Current_State [22] $end
$var wire 1 - Reciever_Current_State [21] $end
$var wire 1 . Reciever_Current_State [20] $end
$var wire 1 / Reciever_Current_State [19] $end
$var wire 1 0 Reciever_Current_State [18] $end
$var wire 1 1 Reciever_Current_State [17] $end
$var wire 1 2 Reciever_Current_State [16] $end
$var wire 1 3 Reciever_Current_State [15] $end
$var wire 1 4 Reciever_Current_State [14] $end
$var wire 1 5 Reciever_Current_State [13] $end
$var wire 1 6 Reciever_Current_State [12] $end
$var wire 1 7 Reciever_Current_State [11] $end
$var wire 1 8 Reciever_Current_State [10] $end
$var wire 1 9 Reciever_Current_State [9] $end
$var wire 1 : Reciever_Current_State [8] $end
$var wire 1 ; Reciever_Current_State [7] $end
$var wire 1 < Reciever_Current_State [6] $end
$var wire 1 = Reciever_Current_State [5] $end
$var wire 1 > Reciever_Current_State [4] $end
$var wire 1 ? Reciever_Current_State [3] $end
$var wire 1 @ Reciever_Current_State [2] $end
$var wire 1 A Reciever_Current_State [1] $end
$var wire 1 B Reciever_Current_State [0] $end
$var wire 1 C Transmission_Bit $end
$var wire 1 D Transmission_Current_State [31] $end
$var wire 1 E Transmission_Current_State [30] $end
$var wire 1 F Transmission_Current_State [29] $end
$var wire 1 G Transmission_Current_State [28] $end
$var wire 1 H Transmission_Current_State [27] $end
$var wire 1 I Transmission_Current_State [26] $end
$var wire 1 J Transmission_Current_State [25] $end
$var wire 1 K Transmission_Current_State [24] $end
$var wire 1 L Transmission_Current_State [23] $end
$var wire 1 M Transmission_Current_State [22] $end
$var wire 1 N Transmission_Current_State [21] $end
$var wire 1 O Transmission_Current_State [20] $end
$var wire 1 P Transmission_Current_State [19] $end
$var wire 1 Q Transmission_Current_State [18] $end
$var wire 1 R Transmission_Current_State [17] $end
$var wire 1 S Transmission_Current_State [16] $end
$var wire 1 T Transmission_Current_State [15] $end
$var wire 1 U Transmission_Current_State [14] $end
$var wire 1 V Transmission_Current_State [13] $end
$var wire 1 W Transmission_Current_State [12] $end
$var wire 1 X Transmission_Current_State [11] $end
$var wire 1 Y Transmission_Current_State [10] $end
$var wire 1 Z Transmission_Current_State [9] $end
$var wire 1 [ Transmission_Current_State [8] $end
$var wire 1 \ Transmission_Current_State [7] $end
$var wire 1 ] Transmission_Current_State [6] $end
$var wire 1 ^ Transmission_Current_State [5] $end
$var wire 1 _ Transmission_Current_State [4] $end
$var wire 1 ` Transmission_Current_State [3] $end
$var wire 1 a Transmission_Current_State [2] $end
$var wire 1 b Transmission_Current_State [1] $end
$var wire 1 c Transmission_Current_State [0] $end
$var wire 1 d Transmission_Done $end
$var wire 1 e Transmission_On $end

$scope module i1 $end
$var wire 1 f gnd $end
$var wire 1 g vcc $end
$var wire 1 h unknown $end
$var tri1 1 i devclrn $end
$var tri1 1 j devpor $end
$var tri1 1 k devoe $end
$var wire 1 l Transmission_On~output_o $end
$var wire 1 m Transmission_Done~output_o $end
$var wire 1 n Transmission_Bit~output_o $end
$var wire 1 o Reciever_Current_State[0]~output_o $end
$var wire 1 p Reciever_Current_State[1]~output_o $end
$var wire 1 q Reciever_Current_State[2]~output_o $end
$var wire 1 r Reciever_Current_State[3]~output_o $end
$var wire 1 s Reciever_Current_State[4]~output_o $end
$var wire 1 t Reciever_Current_State[5]~output_o $end
$var wire 1 u Reciever_Current_State[6]~output_o $end
$var wire 1 v Reciever_Current_State[7]~output_o $end
$var wire 1 w Reciever_Current_State[8]~output_o $end
$var wire 1 x Reciever_Current_State[9]~output_o $end
$var wire 1 y Reciever_Current_State[10]~output_o $end
$var wire 1 z Reciever_Current_State[11]~output_o $end
$var wire 1 { Reciever_Current_State[12]~output_o $end
$var wire 1 | Reciever_Current_State[13]~output_o $end
$var wire 1 } Reciever_Current_State[14]~output_o $end
$var wire 1 ~ Reciever_Current_State[15]~output_o $end
$var wire 1 !! Reciever_Current_State[16]~output_o $end
$var wire 1 "! Reciever_Current_State[17]~output_o $end
$var wire 1 #! Reciever_Current_State[18]~output_o $end
$var wire 1 $! Reciever_Current_State[19]~output_o $end
$var wire 1 %! Reciever_Current_State[20]~output_o $end
$var wire 1 &! Reciever_Current_State[21]~output_o $end
$var wire 1 '! Reciever_Current_State[22]~output_o $end
$var wire 1 (! Reciever_Current_State[23]~output_o $end
$var wire 1 )! Reciever_Current_State[24]~output_o $end
$var wire 1 *! Reciever_Current_State[25]~output_o $end
$var wire 1 +! Reciever_Current_State[26]~output_o $end
$var wire 1 ,! Reciever_Current_State[27]~output_o $end
$var wire 1 -! Reciever_Current_State[28]~output_o $end
$var wire 1 .! Reciever_Current_State[29]~output_o $end
$var wire 1 /! Reciever_Current_State[30]~output_o $end
$var wire 1 0! Reciever_Current_State[31]~output_o $end
$var wire 1 1! Transmission_Current_State[0]~output_o $end
$var wire 1 2! Transmission_Current_State[1]~output_o $end
$var wire 1 3! Transmission_Current_State[2]~output_o $end
$var wire 1 4! Transmission_Current_State[3]~output_o $end
$var wire 1 5! Transmission_Current_State[4]~output_o $end
$var wire 1 6! Transmission_Current_State[5]~output_o $end
$var wire 1 7! Transmission_Current_State[6]~output_o $end
$var wire 1 8! Transmission_Current_State[7]~output_o $end
$var wire 1 9! Transmission_Current_State[8]~output_o $end
$var wire 1 :! Transmission_Current_State[9]~output_o $end
$var wire 1 ;! Transmission_Current_State[10]~output_o $end
$var wire 1 <! Transmission_Current_State[11]~output_o $end
$var wire 1 =! Transmission_Current_State[12]~output_o $end
$var wire 1 >! Transmission_Current_State[13]~output_o $end
$var wire 1 ?! Transmission_Current_State[14]~output_o $end
$var wire 1 @! Transmission_Current_State[15]~output_o $end
$var wire 1 A! Transmission_Current_State[16]~output_o $end
$var wire 1 B! Transmission_Current_State[17]~output_o $end
$var wire 1 C! Transmission_Current_State[18]~output_o $end
$var wire 1 D! Transmission_Current_State[19]~output_o $end
$var wire 1 E! Transmission_Current_State[20]~output_o $end
$var wire 1 F! Transmission_Current_State[21]~output_o $end
$var wire 1 G! Transmission_Current_State[22]~output_o $end
$var wire 1 H! Transmission_Current_State[23]~output_o $end
$var wire 1 I! Transmission_Current_State[24]~output_o $end
$var wire 1 J! Transmission_Current_State[25]~output_o $end
$var wire 1 K! Transmission_Current_State[26]~output_o $end
$var wire 1 L! Transmission_Current_State[27]~output_o $end
$var wire 1 M! Transmission_Current_State[28]~output_o $end
$var wire 1 N! Transmission_Current_State[29]~output_o $end
$var wire 1 O! Transmission_Current_State[30]~output_o $end
$var wire 1 P! Transmission_Current_State[31]~output_o $end
$var wire 1 Q! clk~input_o $end
$var wire 1 R! UART_TX|LessThan1~0_combout $end
$var wire 1 S! UART_TX|Selector8~0_combout $end
$var wire 1 T! UART_TX|Selector7~0_combout $end
$var wire 1 U! UART_TX|Selector6~0_combout $end
$var wire 1 V! UART_TX|Selector11~0_combout $end
$var wire 1 W! UART_TX|estado.Send_Data~q $end
$var wire 1 X! UART_TX|Selector12~0_combout $end
$var wire 1 Y! UART_TX|estado.Parity_Bit~q $end
$var wire 1 Z! UART_TX|estado.Stop_Bit~q $end
$var wire 1 [! UART_TX|estado~8_combout $end
$var wire 1 \! UART_TX|estado.Cleanup~q $end
$var wire 1 ]! input_bit~input_o $end
$var wire 1 ^! UART_RX|RX_Data_Redundant~q $end
$var wire 1 _! UART_RX|RX_Data~q $end
$var wire 1 `! UART_RX|Equal0~0_combout $end
$var wire 1 a! UART_RX|Count[1]~2_combout $end
$var wire 1 b! UART_RX|LessThan1~0_combout $end
$var wire 1 c! UART_RX|Selector15~0_combout $end
$var wire 1 d! UART_RX|estado.Idle~q $end
$var wire 1 e! UART_RX|Selector16~0_combout $end
$var wire 1 f! UART_RX|estado.Start~q $end
$var wire 1 g! UART_RX|Count[1]~3_combout $end
$var wire 1 h! UART_RX|Count[1]~4_combout $end
$var wire 1 i! UART_RX|Count[2]~6_combout $end
$var wire 1 j! UART_RX|Count[1]~1_combout $end
$var wire 1 k! UART_RX|Count[0]~7_combout $end
$var wire 1 l! UART_RX|Count[1]~5_combout $end
$var wire 1 m! UART_RX|Count[1]~0_combout $end
$var wire 1 n! UART_RX|Selector5~0_combout $end
$var wire 1 o! UART_RX|Selector4~0_combout $end
$var wire 1 p! UART_RX|Selector3~0_combout $end
$var wire 1 q! UART_RX|Decoder0~0_combout $end
$var wire 1 r! UART_RX|Selector17~0_combout $end
$var wire 1 s! UART_RX|estado.ReadByte~q $end
$var wire 1 t! UART_RX|Selector18~0_combout $end
$var wire 1 u! UART_RX|estado.Parity~q $end
$var wire 1 v! UART_RX|Selector19~0_combout $end
$var wire 1 w! UART_RX|estado.Stop~q $end
$var wire 1 x! UART_RX|estado~8_combout $end
$var wire 1 y! UART_RX|estado.Cleanup~q $end
$var wire 1 z! UART_RX|Selector6~0_combout $end
$var wire 1 {! UART_RX|Selector6~1_combout $end
$var wire 1 |! UART_RX|DV~q $end
$var wire 1 }! UART_TX|Selector9~0_combout $end
$var wire 1 ~! UART_TX|estado.Idle~q $end
$var wire 1 !" UART_TX|Selector5~0_combout $end
$var wire 1 "" UART_TX|Selector3~0_combout $end
$var wire 1 #" UART_TX|Selector4~0_combout $end
$var wire 1 $" UART_TX|Selector10~0_combout $end
$var wire 1 %" UART_TX|estado.Start_Bit~q $end
$var wire 1 &" UART_TX|Selector0~0_combout $end
$var wire 1 '" UART_TX|TX_Active~q $end
$var wire 1 (" UART_TX|Selector2~0_combout $end
$var wire 1 )" UART_TX|Selector2~1_combout $end
$var wire 1 *" UART_TX|TX_Done_Internal~q $end
$var wire 1 +" UART_RX|Decoder0~1_combout $end
$var wire 1 ," UART_RX|Selector9~0_combout $end
$var wire 1 -" UART_TX|Selector10~1_combout $end
$var wire 1 ." UART_RX|Selector7~0_combout $end
$var wire 1 /" UART_RX|Decoder0~3_combout $end
$var wire 1 0" UART_RX|Selector8~0_combout $end
$var wire 1 1" UART_RX|Decoder0~4_combout $end
$var wire 1 2" UART_RX|Selector13~0_combout $end
$var wire 1 3" UART_RX|Decoder0~5_combout $end
$var wire 1 4" UART_RX|Selector11~0_combout $end
$var wire 1 5" UART_RX|Decoder0~7_combout $end
$var wire 1 6" UART_RX|Selector12~0_combout $end
$var wire 1 7" UART_RX|Decoder0~6_combout $end
$var wire 1 8" UART_RX|Selector14~0_combout $end
$var wire 1 9" UART_TX|Mux0~4_combout $end
$var wire 1 :" UART_RX|Decoder0~2_combout $end
$var wire 1 ;" UART_RX|Selector10~0_combout $end
$var wire 1 <" UART_TX|Mux0~0_combout $end
$var wire 1 =" UART_TX|Selector1~0_combout $end
$var wire 1 >" UART_TX|Selector1~1_combout $end
$var wire 1 ?" UART_TX|TX_Serial~q $end
$var wire 1 @" UART_RX|WideOr0~combout $end
$var wire 1 A" UART_RX|Current~4_combout $end
$var wire 1 B" UART_RX|Current~5_combout $end
$var wire 1 C" UART_TX|WideOr0~combout $end
$var wire 1 D" UART_TX|Current~4_combout $end
$var wire 1 E" UART_TX|Current~5_combout $end
$var wire 1 F" UART_TX|Current [31] $end
$var wire 1 G" UART_TX|Current [30] $end
$var wire 1 H" UART_TX|Current [29] $end
$var wire 1 I" UART_TX|Current [28] $end
$var wire 1 J" UART_TX|Current [27] $end
$var wire 1 K" UART_TX|Current [26] $end
$var wire 1 L" UART_TX|Current [25] $end
$var wire 1 M" UART_TX|Current [24] $end
$var wire 1 N" UART_TX|Current [23] $end
$var wire 1 O" UART_TX|Current [22] $end
$var wire 1 P" UART_TX|Current [21] $end
$var wire 1 Q" UART_TX|Current [20] $end
$var wire 1 R" UART_TX|Current [19] $end
$var wire 1 S" UART_TX|Current [18] $end
$var wire 1 T" UART_TX|Current [17] $end
$var wire 1 U" UART_TX|Current [16] $end
$var wire 1 V" UART_TX|Current [15] $end
$var wire 1 W" UART_TX|Current [14] $end
$var wire 1 X" UART_TX|Current [13] $end
$var wire 1 Y" UART_TX|Current [12] $end
$var wire 1 Z" UART_TX|Current [11] $end
$var wire 1 [" UART_TX|Current [10] $end
$var wire 1 \" UART_TX|Current [9] $end
$var wire 1 ]" UART_TX|Current [8] $end
$var wire 1 ^" UART_TX|Current [7] $end
$var wire 1 _" UART_TX|Current [6] $end
$var wire 1 `" UART_TX|Current [5] $end
$var wire 1 a" UART_TX|Current [4] $end
$var wire 1 b" UART_TX|Current [3] $end
$var wire 1 c" UART_TX|Current [2] $end
$var wire 1 d" UART_TX|Current [1] $end
$var wire 1 e" UART_TX|Current [0] $end
$var wire 1 f" UART_RX|Current [31] $end
$var wire 1 g" UART_RX|Current [30] $end
$var wire 1 h" UART_RX|Current [29] $end
$var wire 1 i" UART_RX|Current [28] $end
$var wire 1 j" UART_RX|Current [27] $end
$var wire 1 k" UART_RX|Current [26] $end
$var wire 1 l" UART_RX|Current [25] $end
$var wire 1 m" UART_RX|Current [24] $end
$var wire 1 n" UART_RX|Current [23] $end
$var wire 1 o" UART_RX|Current [22] $end
$var wire 1 p" UART_RX|Current [21] $end
$var wire 1 q" UART_RX|Current [20] $end
$var wire 1 r" UART_RX|Current [19] $end
$var wire 1 s" UART_RX|Current [18] $end
$var wire 1 t" UART_RX|Current [17] $end
$var wire 1 u" UART_RX|Current [16] $end
$var wire 1 v" UART_RX|Current [15] $end
$var wire 1 w" UART_RX|Current [14] $end
$var wire 1 x" UART_RX|Current [13] $end
$var wire 1 y" UART_RX|Current [12] $end
$var wire 1 z" UART_RX|Current [11] $end
$var wire 1 {" UART_RX|Current [10] $end
$var wire 1 |" UART_RX|Current [9] $end
$var wire 1 }" UART_RX|Current [8] $end
$var wire 1 ~" UART_RX|Current [7] $end
$var wire 1 !# UART_RX|Current [6] $end
$var wire 1 "# UART_RX|Current [5] $end
$var wire 1 ## UART_RX|Current [4] $end
$var wire 1 $# UART_RX|Current [3] $end
$var wire 1 %# UART_RX|Current [2] $end
$var wire 1 &# UART_RX|Current [1] $end
$var wire 1 '# UART_RX|Current [0] $end
$var wire 1 (# UART_RX|Count [2] $end
$var wire 1 )# UART_RX|Count [1] $end
$var wire 1 *# UART_RX|Count [0] $end
$var wire 1 +# UART_TX|Count [2] $end
$var wire 1 ,# UART_TX|Count [1] $end
$var wire 1 -# UART_TX|Count [0] $end
$var wire 1 .# UART_RX|Index [2] $end
$var wire 1 /# UART_RX|Index [1] $end
$var wire 1 0# UART_RX|Index [0] $end
$var wire 1 1# UART_TX|Index [2] $end
$var wire 1 2# UART_TX|Index [1] $end
$var wire 1 3# UART_TX|Index [0] $end
$var wire 1 4# UART_TX|TX_Data [7] $end
$var wire 1 5# UART_TX|TX_Data [6] $end
$var wire 1 6# UART_TX|TX_Data [5] $end
$var wire 1 7# UART_TX|TX_Data [4] $end
$var wire 1 8# UART_TX|TX_Data [3] $end
$var wire 1 9# UART_TX|TX_Data [2] $end
$var wire 1 :# UART_TX|TX_Data [1] $end
$var wire 1 ;# UART_TX|TX_Data [0] $end
$var wire 1 <# UART_RX|Byte [7] $end
$var wire 1 =# UART_RX|Byte [6] $end
$var wire 1 ># UART_RX|Byte [5] $end
$var wire 1 ?# UART_RX|Byte [4] $end
$var wire 1 @# UART_RX|Byte [3] $end
$var wire 1 A# UART_RX|Byte [2] $end
$var wire 1 B# UART_RX|Byte [1] $end
$var wire 1 C# UART_RX|Byte [0] $end
$upscope $end
$upscope $end
$enddefinitions $end
#0
$dumpvars
0!
0"
0B
0A
0@
0?
0>
0=
0<
0;
0:
09
08
07
06
05
04
03
02
01
00
0/
0.
0-
0,
0+
0*
0)
0(
0'
0&
0%
0$
0#
0C
0c
0b
0a
0`
0_
0^
0]
0\
0[
0Z
0Y
0X
0W
0V
0U
0T
0S
0R
0Q
0P
0O
0N
0M
0L
0K
0J
0I
0H
0G
0F
0E
0D
0d
0e
0f
1g
xh
1i
1j
1k
0l
0m
0n
0o
0p
0q
0r
0s
0t
0u
0v
0w
0x
0y
0z
0{
0|
0}
0~
0!!
0"!
0#!
0$!
0%!
0&!
0'!
0(!
0)!
0*!
0+!
0,!
0-!
0.!
0/!
00!
01!
02!
03!
04!
05!
06!
07!
08!
09!
0:!
0;!
0<!
0=!
0>!
0?!
0@!
0A!
0B!
0C!
0D!
0E!
0F!
0G!
0H!
0I!
0J!
0K!
0L!
0M!
0N!
0O!
0P!
0Q!
0R!
0S!
0T!
0U!
0V!
0W!
0X!
0Y!
0Z!
0[!
0\!
0]!
0^!
0_!
0`!
1a!
0b!
1c!
0d!
1e!
0f!
0g!
0h!
0i!
0j!
0k!
0l!
0m!
0n!
0o!
0p!
0q!
0r!
0s!
0t!
0u!
0v!
0w!
0x!
0y!
1z!
0{!
0|!
0}!
0~!
0!"
0""
0#"
0$"
0%"
0&"
0'"
1("
0)"
0*"
0+"
0,"
0-"
0."
0/"
00"
01"
02"
03"
04"
05"
06"
07"
08"
09"
0:"
0;"
0<"
0="
1>"
0?"
0@"
0A"
0B"
0C"
0D"
0E"
0e"
0d"
0c"
zb"
za"
z`"
z_"
z^"
z]"
z\"
z["
zZ"
zY"
zX"
zW"
zV"
zU"
zT"
zS"
zR"
zQ"
zP"
zO"
zN"
zM"
zL"
zK"
zJ"
zI"
zH"
zG"
zF"
0'#
0&#
0%#
z$#
z##
z"#
z!#
z~"
z}"
z|"
z{"
zz"
zy"
zx"
zw"
zv"
zu"
zt"
zs"
zr"
zq"
zp"
zo"
zn"
zm"
zl"
zk"
zj"
zi"
zh"
zg"
zf"
0*#
0)#
0(#
0-#
0,#
0+#
00#
0/#
0.#
03#
02#
01#
0;#
0:#
09#
08#
07#
06#
05#
04#
0C#
0B#
0A#
0@#
0?#
0>#
0=#
0<#
$end
#2500
1!
1Q!
1f!
1d!
1?"
1n
1h!
0z!
1C
1@"
1k!
#5000
0!
0Q!
#7500
1!
1Q!
1*#
1'#
1o
1B
1l!
0k!
#10000
0!
0Q!
#12500
1!
1Q!
1)#
0*#
1k!
#15000
0!
0Q!
#17500
1!
1Q!
1*#
1m!
1g!
1`!
0l!
0k!
0e!
1r!
#20000
0!
0Q!
#22500
1!
1Q!
1s!
0)#
0*#
0f!
0m!
0g!
0`!
1A"
0@"
1k!
#25000
0!
0Q!
#27500
1!
1Q!
1*#
1&#
0'#
0o
1p
1A
0B
1l!
0k!
#30000
0!
0Q!
#32500
1!
1Q!
1)#
0*#
1k!
#35000
0!
0Q!
#37500
1!
1Q!
1*#
1`!
0l!
0k!
1i!
#40000
0!
0Q!
#42500
1!
1Q!
0)#
0*#
1(#
0`!
0i!
1k!
1i!
#45000
0!
0Q!
#47500
1!
1Q!
1*#
1l!
0k!
#50000
0!
0Q!
#52500
1!
1Q!
1)#
0*#
17"
0h!
1b!
1k!
1n!
0l!
0k!
0i!
#55000
0!
0Q!
#57500
1!
1Q!
10#
0)#
0(#
07"
1h!
0b!
1k!
#60000
1"
0!
1]!
0Q!
#62500
1!
1Q!
1*#
1^!
1l!
0k!
#65000
0!
0Q!
#67500
1!
1Q!
1)#
0*#
1_!
1k!
#70000
0!
0Q!
#72500
1!
1Q!
1*#
1`!
0l!
0k!
1i!
#75000
0!
0Q!
#77500
1!
1Q!
0)#
0*#
1(#
0`!
0i!
1k!
1i!
#80000
0!
0Q!
#82500
1!
1Q!
1*#
1l!
0k!
#85000
0!
0Q!
#87500
1!
1Q!
1)#
0*#
11"
0h!
1b!
1k!
1o!
0n!
0l!
0k!
0i!
12"
#90000
0!
0Q!
#92500
1!
1Q!
1/#
00#
0)#
0(#
1B#
01"
1h!
0b!
1k!
#95000
0!
0Q!
#97500
1!
1Q!
1*#
1l!
0k!
#100000
0!
0Q!
#102500
1!
1Q!
1)#
0*#
1k!
#105000
0!
0Q!
#107500
1!
1Q!
1*#
1`!
0l!
0k!
1i!
#110000
0!
0Q!
#112500
1!
1Q!
0)#
0*#
1(#
0`!
0i!
1k!
1i!
#115000
0!
0Q!
#117500
1!
1Q!
1*#
1l!
0k!
#120000
0!
0Q!
#122500
1!
1Q!
1)#
0*#
15"
0h!
1b!
1k!
1n!
0l!
0k!
0i!
16"
#125000
0!
0Q!
#127500
1!
1Q!
10#
0)#
0(#
1A#
05"
1h!
0b!
1p!
0p!
1k!
#130000
0!
0Q!
#132500
1!
1Q!
1*#
1l!
0k!
#135000
0!
0Q!
#137500
1!
1Q!
1)#
0*#
1k!
#140000
0!
0Q!
#142500
1!
1Q!
1*#
1`!
0l!
0k!
1i!
#145000
0!
0Q!
#147500
1!
1Q!
0)#
0*#
1(#
0`!
0i!
1k!
1i!
#150000
0!
0Q!
#152500
1!
1Q!
1*#
1l!
0k!
#155000
0!
0Q!
#157500
1!
1Q!
1)#
0*#
13"
0h!
1b!
1k!
0o!
0n!
1p!
0l!
0k!
0i!
14"
#160000
0!
0Q!
#162500
1!
1Q!
1.#
0/#
00#
0)#
0(#
1@#
03"
1h!
0b!
1k!
#165000
0!
0Q!
#167500
1!
1Q!
1*#
1l!
0k!
#170000
0!
0Q!
#172500
1!
1Q!
1)#
0*#
1k!
#175000
0!
0Q!
#177500
1!
1Q!
1*#
1`!
0l!
0k!
1i!
#180000
0"
0!
0]!
0Q!
#182500
1!
1Q!
0)#
0*#
1(#
0^!
0`!
0i!
1k!
1i!
#185000
0!
0Q!
#187500
1!
1Q!
1*#
0_!
1l!
0k!
#190000
1"
0!
1]!
0Q!
#192500
1!
1Q!
1)#
0*#
1^!
1:"
0h!
1b!
1k!
1n!
0l!
0k!
0i!
#195000
0!
0Q!
#197500
1!
1Q!
10#
0)#
0(#
1_!
0:"
1h!
0b!
1;"
1k!
0;"
#200000
0"
0!
0]!
0Q!
#202500
1!
1Q!
1*#
0^!
1l!
0k!
#205000
0!
0Q!
#207500
1!
1Q!
1)#
0*#
0_!
1k!
#210000
1"
0!
1]!
0Q!
#212500
1!
1Q!
1*#
1^!
1`!
0l!
0k!
1i!
#215000
0!
0Q!
#217500
1!
1Q!
0)#
0*#
1(#
1_!
0`!
0i!
1k!
1i!
#220000
0!
0Q!
#222500
1!
1Q!
1*#
1l!
0k!
#225000
0!
0Q!
#227500
1!
1Q!
1)#
0*#
1+"
0h!
1b!
1k!
1o!
0n!
0l!
0k!
0i!
1,"
#230000
0!
0Q!
#232500
1!
1Q!
1/#
00#
0)#
0(#
1>#
0+"
1h!
0b!
1k!
#235000
0!
0Q!
#237500
1!
1Q!
1*#
1l!
0k!
#240000
0!
0Q!
#242500
1!
1Q!
1)#
0*#
1k!
#245000
0!
0Q!
#247500
1!
1Q!
1*#
1`!
0l!
0k!
1i!
#250000
0!
0Q!
#252500
1!
1Q!
0)#
0*#
1(#
0`!
0i!
1k!
1i!
#255000
0!
0Q!
#257500
1!
1Q!
1*#
1l!
0k!
#260000
0!
0Q!
#262500
1!
1Q!
1)#
0*#
1/"
0h!
1b!
1k!
1n!
0l!
0k!
0i!
10"
#265000
0!
0Q!
#267500
1!
1Q!
10#
0)#
0(#
1=#
0/"
1h!
0b!
1t!
0p!
1p!
1k!
#270000
0!
0Q!
#272500
1!
1Q!
1*#
1l!
0k!
#275000
0!
0Q!
#277500
1!
1Q!
1)#
0*#
1k!
#280000
0"
0!
0]!
0Q!
#282500
1!
1Q!
1*#
0^!
1`!
0l!
0k!
1i!
#285000
0!
0Q!
#287500
1!
1Q!
0)#
0*#
1(#
0_!
0`!
0i!
1k!
1i!
#290000
0!
0Q!
#292500
1!
1Q!
1*#
1l!
0k!
#295000
0!
0Q!
#297500
1!
1Q!
1)#
0*#
1q!
0h!
1b!
1k!
0o!
0n!
0p!
0l!
0k!
0i!
0r!
#300000
0!
0Q!
#302500
1!
1Q!
1u!
0s!
0.#
0/#
00#
0)#
0(#
0q!
1h!
0b!
0t!
1@"
0c!
1c!
1k!
#305000
0!
0Q!
#307500
1!
1Q!
1*#
1'#
1o
1B
1l!
0k!
#310000
1"
0!
1]!
0Q!
#312500
1!
1Q!
1)#
0*#
1^!
1k!
#315000
0!
0Q!
#317500
1!
1Q!
1*#
1_!
1`!
1v!
0l!
0k!
1i!
#320000
0!
0Q!
#322500
1!
1Q!
0)#
0*#
1(#
0`!
0i!
1k!
1i!
#325000
0!
0Q!
#327500
1!
1Q!
1*#
1l!
0k!
#330000
0!
0Q!
#332500
1!
1Q!
1)#
0*#
1g!
17"
1b!
1k!
0l!
0k!
0i!
#335000
0!
0Q!
#337500
1!
1Q!
1w!
0u!
0)#
0(#
07"
0g!
0b!
0A"
0v!
1B"
0@"
1k!
#340000
0!
0Q!
#342500
1!
1Q!
1*#
1%#
0&#
0'#
0o
0p
1q
1@
0A
0B
1l!
0k!
#345000
0!
0Q!
#347500
1!
1Q!
1)#
0*#
1k!
#350000
0!
0Q!
#352500
1!
1Q!
1*#
1`!
0l!
0k!
1i!
#355000
0!
0Q!
#357500
1!
1Q!
0)#
0*#
1(#
0`!
0i!
1k!
1i!
#360000
0!
0Q!
#362500
1!
1Q!
1*#
1l!
0k!
#365000
0!
0Q!
#367500
1!
1Q!
1)#
0*#
17"
0h!
1b!
1k!
1x!
0l!
0k!
0i!
1{!
#370000
0"
0!
0]!
0Q!
#372500
1!
1Q!
1|!
1y!
0w!
0)#
0(#
0^!
07"
1h!
0b!
0a!
1z!
1-"
0x!
1@"
0c!
1$"
1}!
#375000
0!
0Q!
#377500
1!
1Q!
19#
18#
1:#
15#
16#
1%"
1~!
0y!
0d!
0_!
1'#
1o
1a!
0h!
1="
0-"
0("
1B
06"
04"
02"
00"
0,"
1e!
1c!
0@"
0B"
0{!
1C"
1!"
1&"
0>"
#380000
0!
0Q!
#382500
1!
1Q!
1-#
0|!
1f!
1d!
1e"
0%#
0'#
0?"
0A#
0@#
0B#
0=#
0>#
1'"
1l
0n
0o
0q
11!
1h!
0z!
1c
0@
0B
0C
1e
1@"
1#"
0!"
1k!
#385000
0!
0Q!
#387500
1!
1Q!
1,#
0-#
1*#
1'#
1o
1B
1l!
0k!
1!"
#390000
0!
0Q!
#392500
1!
1Q!
1-#
1)#
0*#
1k!
0#"
1""
0!"
#395000
0!
0Q!
#397500
1!
1Q!
0,#
1+#
0-#
1*#
1m!
1g!
1`!
0l!
0k!
0e!
1!"
1r!
#400000
0!
0Q!
#402500
1!
1Q!
1-#
1s!
0)#
0*#
0f!
0m!
0g!
0`!
1A"
0@"
1#"
0!"
1k!
#405000
0!
0Q!
#407500
1!
1Q!
1,#
0-#
1*#
1&#
0'#
0o
1p
1R!
1A
0B
1l!
0k!
0#"
0""
0$"
1V!
#410000
0!
0Q!
#412500
1!
1Q!
0%"
0,#
0+#
1)#
0*#
1W!
0R!
1D"
0C"
1k!
1!"
#415000
0!
0Q!
#417500
1!
1Q!
1-#
1*#
1d"
0e"
01!
12!
1`!
1b
0c
0l!
0k!
1#"
0!"
1i!
#420000
1"
0!
1]!
0Q!
#422500
1!
1Q!
1,#
0-#
0)#
0*#
1(#
1^!
0`!
0i!
1k!
1!"
1i!
#425000
0!
0Q!
#427500
1!
1Q!
1-#
1*#
1_!
1l!
0k!
0#"
1""
0!"
#430000
0!
0Q!
#432500
1!
1Q!
0,#
1+#
0-#
1)#
0*#
17"
0h!
1b!
1k!
1n!
1!"
0l!
0k!
0i!
18"
#435000
0!
0Q!
#437500
1!
1Q!
1-#
10#
0)#
0(#
1C#
07"
1h!
0b!
1#"
0!"
1k!
#440000
0!
0Q!
#442500
1!
1Q!
1,#
0-#
1*#
1R!
1l!
0k!
0#"
0""
1S!
#445000
0!
0Q!
#447500
1!
1Q!
0,#
0+#
1)#
0*#
13#
19"
0R!
1k!
1!"
1<"
1>"
#450000
0!
0Q!
#452500
1!
1Q!
1-#
1*#
1?"
1n
1`!
1C
0l!
0k!
1#"
0!"
1i!
#455000
0!
0Q!
#457500
1!
1Q!
1,#
0-#
0)#
0*#
1(#
0`!
0i!
1k!
1!"
1i!
#460000
0!
0Q!
#462500
1!
1Q!
1-#
1*#
1l!
0k!
0#"
1""
0!"
#465000
0!
0Q!
#467500
1!
1Q!
0,#
1+#
0-#
1)#
0*#
11"
0h!
1b!
1k!
1o!
0n!
1!"
0l!
0k!
0i!
12"
#470000
0!
0Q!
#472500
1!
1Q!
1-#
1/#
00#
0)#
0(#
1B#
01"
1h!
0b!
1#"
0!"
1k!
#475000
0!
0Q!
#477500
1!
1Q!
1,#
0-#
1*#
1R!
1l!
0k!
0#"
0""
1T!
0S!
#480000
0!
0Q!
#482500
1!
1Q!
0,#
0+#
1)#
0*#
12#
03#
0R!
1k!
1!"
#485000
0!
0Q!
#487500
1!
1Q!
1-#
1*#
1`!
0l!
0k!
1#"
0!"
1i!
#490000
0!
0Q!
#492500
1!
1Q!
1,#
0-#
0)#
0*#
1(#
0`!
0i!
1k!
1!"
1i!
#495000
0!
0Q!
#497500
1!
1Q!
1-#
1*#
1l!
0k!
0#"
1""
0!"
#500000
0!
0Q!
#502500
1!
1Q!
0,#
1+#
0-#
1)#
0*#
15"
0h!
1b!
1k!
1n!
1!"
0l!
0k!
0i!
16"
#505000
0!
0Q!
#507500
1!
1Q!
1-#
10#
0)#
0(#
1A#
05"
1h!
0b!
1p!
1#"
0!"
0p!
1k!
#510000
0!
0Q!
