hightolow/simulation/qsim/hightolow.msim.vcd
$comment
	File created using the following command:
		vcd file hightolow.msim.vcd -direction
$end
$date
	Sat May 17 17:11:47 2025
$end
$version
	ModelSim Version 2020.1
$end
$timescale
	1ps
$end

$scope module hightolow_vhd_vec_tst $end
$var wire 1 ! clk $end
$var wire 1 " reset $end
$var wire 1 # y $end

$scope module i1 $end
$var wire 1 $ gnd $end
$var wire 1 % vcc $end
$var wire 1 & unknown $end
$var wire 1 ' devoe $end
$var wire 1 ( devclrn $end
$var wire 1 ) devpor $end
$var wire 1 * ww_devoe $end
$var wire 1 + ww_devclrn $end
$var wire 1 , ww_devpor $end
$var wire 1 - ww_clk $end
$var wire 1 . ww_reset $end
$var wire 1 / ww_y $end
$var wire 1 0 \~QUARTUS_CREATED_GND~I_combout\ $end
$var wire 1 1 \clk~input_o\ $end
$var wire 1 2 \clk~inputCLKENA0_outclk\ $end
$var wire 1 3 \reset~input_o\ $end
$var wire 1 4 \estado.S0~DUPLICATE_q\ $end
$var wire 1 5 \estado.S1~0_combout\ $end
$var wire 1 6 \estado.S1~q\ $end
$var wire 1 7 \estado.S2~q\ $end
$var wire 1 8 \estado.S3~feeder_combout\ $end
$var wire 1 9 \estado.S3~q\ $end
$var wire 1 : \estado.S4~q\ $end
$var wire 1 ; \estado.S5~q\ $end
$var wire 1 < \estado.S6~feeder_combout\ $end
$var wire 1 = \estado.S6~q\ $end
$var wire 1 > \estado.S7~q\ $end
$var wire 1 ? \estado.S0~0_combout\ $end
$var wire 1 @ \estado.S0~q\ $end
$var wire 1 A \y~0_combout\ $end
$var wire 1 B \y~reg0_q\ $end
$var wire 1 C \ALT_INV_estado.S2~q\ $end
$var wire 1 D \ALT_INV_y~reg0_q\ $end
$var wire 1 E \ALT_INV_estado.S0~q\ $end
$var wire 1 F \ALT_INV_estado.S7~q\ $end
$var wire 1 G \ALT_INV_estado.S5~q\ $end
$var wire 1 H \ALT_INV_reset~input_o\ $end
$var wire 1 I \ALT_INV_estado.S0~DUPLICATE_q\ $end
$upscope $end
$upscope $end
$enddefinitions $end
#0
$dumpvars
0!
0"
0#
0$
1%
x&
1'
1(
1)
1*
1+
1,
0-
0.
0/
x0
01
02
03
04
15
06
07
08
09
0:
0;
0<
0=
0>
1?
0@
0A
0B
1C
1D
1E
1F
1G
1H
1I
$end
#10000
1!
1-
11
12
14
16
1@
0E
0I
05
#20000
0!
0-
01
02
#30000
1!
1-
11
12
06
17
0C
18
1A
#40000
0!
0-
01
02
#50000
1!
1-
11
12
07
19
1B
0D
1C
08
1/
1#
#60000
0!
0-
01
02
#70000
1!
1-
11
12
09
1:
#80000
0!
0-
01
02
#90000
1!
1-
11
12
0:
1;
0G
1<
#100000
0!
0-
01
02
#110000
1!
1-
11
12
0;
1=
1G
0<
#120000
0!
0-
01
02
#130000
1!
1-
11
12
0=
1>
0F
0?
#140000
0!
0-
01
02
#150000
1!
1-
11
12
04
0>
0@
1E
1F
1I
15
1?
0A
#160000
0!
0-
01
02
#170000
1!
1-
11
12
14
16
1@
0B
1D
0E
0I
05
0/
0#
#180000
0!
0-
01
02
#190000
1!
1-
11
12
06
17
0C
18
1A
#200000
0!
0-
01
02
#210000
1!
1-
11
12
07
19
1B
0D
1C
08
1/
1#
#220000
0!
0-
01
02
#230000
1!
1-
11
12
09
1:
#240000
0!
0-
01
02
#250000
1!
1-
11
12
0:
1;
0G
1<
#260000
0!
0-
01
02
#270000
1!
1-
11
12
0;
1=
1G
0<
#280000
0!
0-
01
02
#290000
1!
1-
11
12
0=
1>
0F
0?
#300000
0!
0-
01
02
#310000
1!
1-
11
12
04
0>
0@
1E
1F
1I
15
1?
0A
#320000
0!
0-
01
02
#330000
1!
1-
11
12
14
16
1@
0B
1D
0E
0I
05
0/
0#
#340000
0!
0-
01
02
#350000
1!
1-
11
12
06
17
0C
18
1A
#360000
0!
0-
01
02
#370000
1!
1-
11
12
07
19
1B
0D
1C
08
1/
1#
#380000
0!
0-
01
02
#390000
1!
1-
11
12
09
1:
#400000
0!
0-
01
02
#410000
1!
1-
11
12
0:
1;
0G
1<
#420000
0!
0-
01
02
#430000
1!
1-
11
12
0;
1=
1G
0<
#440000
0!
0-
01
02
#450000
1!
1-
11
12
0=
1>
0F
0?
#460000
0!
0-
01
02
#470000
1!
1-
11
12
04
0>
0@
1E
1F
1I
15
1?
0A
#480000
0!
0-
01
02
#490000
1!
1-
11
12
14
16
1@
0B
1D
0E
0I
05
0/
0#
#500000
0!
0-
01
02
#510000
1!
1-
11
12
06
17
0C
18
1A
#520000
0!
0-
01
02
#530000
1!
1-
11
12
07
19
1B
0D
1C
08
1/
1#
#540000
0!
0-
01
02
#550000
1!
1-
11
12
09
1:
#560000
0!
0-
01
02
#570000
1!
1-
11
12
0:
1;
0G
1<
#580000
0!
0-
01
02
#590000
1!
1-
11
12
0;
1=
1G
0<
#600000
0!
0-
01
02
#610000
1!
1-
11
12
0=
1>
0F
0?
#620000
0!
0-
01
02
#630000
1!
1-
11
12
04
0>
0@
1E
1F
1I
15
1?
0A
#640000
0!
0-
01
02
#650000
1!
1-
11
12
14
16
1@
0B
1D
0E
0I
05
0/
0#
#660000
0!
0-
01
02
#670000
1!
1-
11
12
06
17
0C
18
1A
#680000
0!
0-
01
02
#690000
1!
1-
11
12
07
19
1B
0D
1C
08
1/
1#
#700000
0!
0-
01
02
#710000
1!
1-
11
12
09
1:
#720000
0!
0-
01
02
#730000
1!
1-
11
12
0:
1;
0G
1<
#740000
0!
0-
01
02
#750000
1!
1-
11
12
0;
1=
1G
0<
#760000
0!
0-
01
02
#770000
1!
1-
11
12
0=
1>
0F
0?
#780000
0!
0-
01
02
#790000
1!
1-
11
12
04
0>
0@
1E
1F
1I
15
1?
0A
#800000
0!
0-
01
02
#810000
1!
1-
11
12
14
16
1@
0B
1D
0E
0I
05
0/
0#
#820000
0!
0-
01
02
#830000
1!
1-
11
12
06
17
0C
18
1A
#840000
0!
0-
01
02
#850000
1!
1-
11
12
07
19
1B
0D
1C
08
1/
1#
#860000
0!
0-
01
02
#870000
1!
1-
11
12
09
1:
#880000
0!
0-
01
02
#890000
1!
1-
11
12
0:
1;
0G
1<
#900000
0!
0-
01
02
#910000
1!
1-
11
12
0;
1=
1G
0<
#920000
0!
0-
01
02
#930000
1!
1-
11
12
0=
1>
0F
0?
#940000
0!
0-
01
02
#950000
1!
1-
11
12
04
0>
0@
1E
1F
1I
15
1?
0A
#960000
0!
0-
01
02
#970000
1!
1-
11
12
14
16
1@
0B
1D
0E
0I
05
0/
0#
#980000
0!
0-
01
02
#990000
1!
1-
11
12
06
17
0C
18
1A
