hightolow/simulation/qsim/hightolow.msim.vcd
$comment
	File created using the following command:
		vcd file hightolow.msim.vcd -direction
$end
$date
	Tue May 06 17:06:28 2025
$end
$version
	ModelSim Version 2020.1
$end
$timescale
	1ps
$end

$scope module hightolow_vhd_vec_tst $end
$var wire 1 ! clk $end
$var wire 1 " reset $end
$var wire 1 # y $end

$scope module i1 $end
$var wire 1 $ gnd $end
$var wire 1 % vcc $end
$var wire 1 & unknown $end
$var wire 1 ' devoe $end
$var wire 1 ( devclrn $end
$var wire 1 ) devpor $end
$var wire 1 * ww_devoe $end
$var wire 1 + ww_devclrn $end
$var wire 1 , ww_devpor $end
$var wire 1 - ww_clk $end
$var wire 1 . ww_reset $end
$var wire 1 / ww_y $end
$var wire 1 0 \y~output_o\ $end
$var wire 1 1 \clk~input_o\ $end
$var wire 1 2 \reset~input_o\ $end
$var wire 1 3 \estado.S3~q\ $end
$var wire 1 4 \estado.S4~q\ $end
$var wire 1 5 \estado.S5~q\ $end
$var wire 1 6 \estado.S6~q\ $end
$var wire 1 7 \estado.S7~q\ $end
$var wire 1 8 \estado.S0~0_combout\ $end
$var wire 1 9 \estado.S0~q\ $end
$var wire 1 : \estado.S1~0_combout\ $end
$var wire 1 ; \estado.S1~q\ $end
$var wire 1 < \estado.S2~q\ $end
$var wire 1 = \y~0_combout\ $end
$var wire 1 > \y~reg0_q\ $end
$var wire 1 ? \ALT_INV_reset~input_o\ $end
$var wire 1 @ \ALT_INV_estado.S7~q\ $end
$var wire 1 A \ALT_INV_estado.S0~q\ $end
$var wire 1 B \ALT_INV_estado.S2~q\ $end
$var wire 1 C \ALT_INV_y~reg0_q\ $end
$upscope $end
$upscope $end
$enddefinitions $end
#0
$dumpvars
0!
0"
0#
0$
1%
x&
1'
1(
1)
1*
1+
1,
0-
0.
0/
00
01
02
03
04
05
06
07
18
09
1:
0;
0<
0=
0>
1?
1@
1A
1B
1C
$end
#10000
1!
1-
11
19
1;
0A
0:
#20000
0!
0-
01
#30000
1!
1-
11
0;
1<
0B
1=
#40000
0!
0-
01
#50000
1!
1-
11
13
0<
1>
0C
1B
10
1/
1#
#60000
0!
0-
01
#70000
1!
1-
11
03
14
#80000
0!
0-
01
#90000
1!
1-
11
04
15
#100000
0!
0-
01
#110000
1!
1-
11
05
16
#120000
0!
0-
01
#130000
1!
1-
11
06
17
0@
08
#140000
0!
0-
01
#150000
1!
1-
11
07
09
1A
1@
18
1:
0=
#160000
0!
0-
01
#170000
1!
1-
11
19
1;
0>
1C
0A
0:
00
0/
0#
#180000
0!
0-
01
#190000
1!
1-
11
0;
1<
0B
1=
#200000
0!
0-
01
#210000
1!
1-
11
13
0<
1>
0C
1B
10
1/
1#
#220000
0!
0-
01
#230000
1!
1-
11
03
14
#240000
0!
0-
01
#250000
1!
1-
11
04
15
#260000
0!
0-
01
#270000
1!
1-
11
05
16
#280000
0!
0-
01
#290000
1!
1-
11
06
17
0@
08
#300000
0!
0-
01
#310000
1!
1-
11
07
09
1A
1@
18
1:
0=
#320000
0!
0-
01
#330000
1!
1-
11
19
1;
0>
1C
0A
0:
00
0/
0#
#340000
0!
0-
01
#350000
1!
1-
11
0;
1<
0B
1=
#360000
0!
0-
01
#370000
1!
1-
11
13
0<
1>
0C
1B
10
1/
1#
#380000
0!
0-
01
#390000
1!
1-
11
03
14
#400000
0!
0-
01
#410000
1!
1-
11
04
15
#420000
0!
0-
01
#430000
1!
1-
11
05
16
#440000
0!
0-
01
#450000
1!
1-
11
06
17
0@
08
#460000
0!
0-
01
#470000
1!
1-
11
07
09
1A
1@
18
1:
0=
#480000
0!
0-
01
#490000
1!
1-
11
19
1;
0>
1C
0A
0:
00
0/
0#
#500000
0!
0-
01
#510000
1!
1-
11
0;
1<
0B
1=
#520000
0!
0-
01
#530000
1!
1-
11
13
0<
1>
0C
1B
10
1/
1#
#540000
0!
0-
01
#550000
1!
1-
11
03
14
#560000
0!
0-
01
#570000
1!
1-
11
04
15
#580000
0!
0-
01
#590000
1!
1-
11
05
16
#600000
0!
0-
01
#610000
1!
1-
11
06
17
0@
08
#620000
0!
0-
01
#630000
1!
1-
11
07
09
1A
1@
18
1:
0=
#640000
0!
0-
01
#650000
1!
1-
11
19
1;
0>
1C
0A
0:
00
0/
0#
#660000
0!
0-
01
#670000
1!
1-
11
0;
1<
0B
1=
#680000
0!
0-
01
#690000
1!
1-
11
13
0<
1>
0C
1B
10
1/
1#
#700000
0!
0-
01
#710000
1!
1-
11
03
14
#720000
0!
0-
01
#730000
1!
1-
11
04
15
#740000
0!
0-
01
#750000
1!
1-
11
05
16
#760000
0!
0-
01
#770000
1!
1-
11
06
17
0@
08
#780000
0!
0-
01
#790000
1!
1-
11
07
09
1A
1@
18
1:
0=
#800000
0!
0-
01
#810000
1!
1-
11
19
1;
0>
1C
0A
0:
00
0/
0#
#820000
0!
0-
01
#830000
1!
1-
11
0;
1<
0B
1=
#840000
0!
0-
01
#850000
1!
1-
11
13
0<
1>
0C
1B
10
1/
1#
#860000
0!
0-
01
#870000
1!
1-
11
03
14
#880000
0!
0-
01
#890000
1!
1-
11
04
15
#900000
0!
0-
01
#910000
1!
1-
11
05
16
#920000
0!
0-
01
#930000
1!
1-
11
06
17
0@
08
#940000
0!
0-
01
#950000
1!
1-
11
07
09
1A
1@
18
1:
0=
#960000
0!
0-
01
#970000
1!
1-
11
19
1;
0>
1C
0A
0:
00
0/
0#
#980000
0!
0-
01
#990000
1!
1-
11
0;
1<
0B
1=
